%YAML 1.1
%TAG !u! tag:unity3d.com,2011:
--- !u!1045 &1
EditorBuildSettings:
  m_ObjectHideFlags: 0
  serializedVersion: 2
  m_Scenes:
  - enabled: 1
    path: Assets/Scenes/Init.unity
    guid: 125cbe6a07aef4d4c81e5ac84d764287
  - enabled: 1
    path: Assets/Scenes/Pong.unity
    guid: 2cda990e2423bbf4892e6590ba056729
  m_configObjects: {}
